{
  "ResumeId": "00000000-0000-0000-0000-000000000001",
  "Login": "Логин клиента",
  "Site": "Сайтик компании",
  "TemplateName": "Промо. Загрузка резюме.",
  "ToEmail": "kotlyachkov@integrum.ru",
  "Header": "Обратный звонок компании",
  "Name": "Name письма"
}