{
  "JobId": "Идентификатор работы",
  "EmployerId": 3545717,
  "TemplateName": "Фейковый отклик на вакансию",
  "JobName": "Название Джоба",
  "JobSeekerName": "Название Джобсикера",
  "Description": "Дескрипшен Дескрипшен Дескрипшен Дескрипшен Дескрипшен Дескрипшен",
  "ResponseId": 3000,
  "SiteUrl": "Http://integrum.test/rabota",
  "ToEmail": "kotlyachkov@integrum.ru",
  "Header": "Обратный звонок компании",
  "Name": "Name письма"
}