{
  "Phone": "89251234567",
  "CallTime": "18:30",
  "UserEmail": "kotlyachkov@integrum.ru",
  "TemplateName": "Обратный звонок компании",
  "ToEmail": "kotlyachkov@integrum.ru",
  "Header": "Обратный звонок компании",
  "Name": "Name письма"
}