{
  "JobSeekerName": "Название Джобсикера",
  "ResumeTitle": "Название резюме",
  "ResumeModifyDate": "2016-01-09T07:09:09",
  "ResumeGuid": "00000000-0000-0000-0000-000000000002",
  "SiteUrl": "Http://integrum.test/rabota",
  "TemplateName": "Создание резюме",
  "ToEmail": "kotlyachkov@integrum.ru",
  "Header": "Обратный звонок компании",
  "Name": "Name письма"
}