{
  "Items": [
    {
      "Id": 0,
      "Name": null,
      "MonthIncome": null,
      "City": null,
      "CompanyName": null,
      "Experience": null,
      "TimeTable": null,
      "Occupation": null
    }
  ],
  "NewJobsStr": null,
  "TemplateName": "Фейковый отклик на вакансию",
  "AutoSearchId": 0,
  "UserName": null,
  "NewCount": 0,
  "AutoSearchName": null,
  "SiteUrl": null,
  "AutoSearchRelativeUrl": null,
  "ViewDate": null,
  "ViewDateStr": "",
  "ToEmail": null,
  "Header": null,
  "Name": null
}