{
  "JobSeekerName": null,
  "ResumeTitle": null,
  "SiteUrl": null,
  "ResponseId": 0,
  "ResumeGuid": "00000000-0000-0000-0000-000000000000",
  "TemplateName": "Рекомендация для модератора",
  "ToEmail": null,
  "Header": null,
  "Name": null
}